Get ID maps • ror
…
results
#> # A tibble: 32 x 4
#>    name               type      source  id                 
#>    <chr>              <chr>     <chr>   <chr>              
#>  1 University of Bath preferred ISNI    NA                 
#>  2 University of Bath all       ISNI    0000 0001 2162 1699
#>  3 University of Bath preferred FundRef NA                 
#>  4 University of Bath all       FundRef 501100000835       
#>  5 University of Bath preferred HESA    NA                 
#>  6 University of Bath all       HESA    0109               
#>  7 University of Bath preferred UCAS    NA                 
#>  8 University of Bath all       UCAS    B16                
#>  9 University of Bath preferred UKPRN   NA                 
#> 10 University of Bath all       UKPRN   10007850           
#> # ... with 22 more rows
…
